﻿ 2017-05-09 02:16:54,894 [P7696/D2/T1] INFO  Umbraco.Core.CoreBootManager - Umbraco 7.4.1 application starting on MENAGA-PC
 2017-05-09 02:16:55,844 [P7696/D2/T1] INFO  Umbraco.Core.PluginManager - Determining hash of code files on disk
 2017-05-09 02:16:56,022 [P7696/D2/T1] INFO  Umbraco.Core.PluginManager - Hash determined (took 178ms)
 2017-05-09 02:16:56,858 [P7696/D2/T1] INFO  Umbraco.Core.PluginManager - Starting resolution types of umbraco.interfaces.IApplicationStartupHandler
 2017-05-09 02:16:57,764 [P7696/D2/T1] INFO  Umbraco.Core.PluginManager - Completed resolution of types of umbraco.interfaces.IApplicationStartupHandler, found 0 (took 906ms)
 2017-05-09 02:16:58,761 [P7696/D2/T1] INFO  Umbraco.Core.PluginManager - Starting resolution types of Umbraco.Core.PropertyEditors.IPropertyEditorValueConverter
 2017-05-09 02:16:58,764 [P7696/D2/T1] INFO  Umbraco.Core.PluginManager - Completed resolution of types of Umbraco.Core.PropertyEditors.IPropertyEditorValueConverter, found 0 (took 2ms)
 2017-05-09 02:16:58,765 [P7696/D2/T1] INFO  Umbraco.Core.PluginManager - Starting resolution types of Umbraco.Core.PropertyEditors.IPropertyValueConverter
 2017-05-09 02:16:58,784 [P7696/D2/T1] INFO  Umbraco.Core.PluginManager - Completed resolution of types of Umbraco.Core.PropertyEditors.IPropertyValueConverter, found 0 (took 19ms)
 2017-05-09 02:16:58,869 [P7696/D2/T1] INFO  Umbraco.Core.PluginManager - Starting resolution types of Umbraco.Web.Mvc.SurfaceController
 2017-05-09 02:16:59,031 [P7696/D2/T1] INFO  Umbraco.Core.PluginManager - Completed resolution of types of Umbraco.Web.Mvc.SurfaceController, found 0 (took 161ms)
 2017-05-09 02:16:59,033 [P7696/D2/T1] INFO  Umbraco.Core.PluginManager - Starting resolution types of Umbraco.Web.WebApi.UmbracoApiController
 2017-05-09 02:16:59,107 [P7696/D2/T1] INFO  Umbraco.Core.PluginManager - Completed resolution of types of Umbraco.Web.WebApi.UmbracoApiController, found 0 (took 73ms)
 2017-05-09 02:17:00,550 [P7696/D2/T1] INFO  Umbraco.Core.PluginManager - Starting resolution types of Umbraco.Core.Media.IThumbnailProvider
 2017-05-09 02:17:00,553 [P7696/D2/T1] INFO  Umbraco.Core.PluginManager - Completed resolution of types of Umbraco.Core.Media.IThumbnailProvider, found 0 (took 2ms)
 2017-05-09 02:17:00,555 [P7696/D2/T1] INFO  Umbraco.Core.PluginManager - Starting resolution types of Umbraco.Core.Media.IImageUrlProvider
 2017-05-09 02:17:00,560 [P7696/D2/T1] INFO  Umbraco.Core.PluginManager - Completed resolution of types of Umbraco.Core.Media.IImageUrlProvider, found 0 (took 4ms)
 2017-05-09 02:17:07,491 [P7696/D2/T1] INFO  Umbraco.Core.DatabaseContext - CanConnect = True
 2017-05-09 02:17:11,166 [P7696/D2/T1] INFO  Umbraco.Core.DatabaseContext - CanConnect = True
 2017-05-09 02:17:11,174 [P7696/D2/T1] INFO  Umbraco.Core.DatabaseContext - CanConnect = True
 2017-05-09 02:17:12,289 [P7696/D2/T1] INFO  Umbraco.Web.Cache.CacheRefresherEventHandler - Initializing Umbraco internal event handlers for cache refreshing
 2017-05-09 02:17:13,226 [P7696/D2/T1] INFO  Umbraco.Web.Search.ExamineEvents - Initializing Examine and binding to business logic events
 2017-05-09 02:17:14,701 [P7696/D2/T1] INFO  Umbraco.Web.Search.ExamineEvents - Adding examine event handlers for index providers: 3
 2017-05-09 02:17:14,917 [P7696/D2/T1] INFO  Umbraco.Core.CoreBootManager - Umbraco application startup complete (took 20533ms)
 2017-05-09 02:17:39,447 [P7696/D2/T12] INFO  Umbraco.Core.Sync.ApplicationUrlHelper - ApplicationUrl: http://localhost.panasieashoot.com:80/umbraco (UmbracoModule request)
 2017-05-09 02:17:39,544 [P7696/D2/T13] INFO  Umbraco.Core.Sync.ApplicationUrlHelper - ApplicationUrl: http://localhost.panasieashoot.com:80/umbraco (UmbracoModule request)
 2017-05-09 02:18:00,855 [P7696/D2/T12] INFO  umbraco.content - Load Xml from file...
 2017-05-09 02:18:01,202 [P7696/D2/T12] INFO  umbraco.content - Loaded Xml from file.
 2017-05-09 02:18:11,625 [P7696/D2/T12] INFO  Umbraco.Core.PluginManager - Starting resolution types of Umbraco.Core.PropertyEditors.IParameterEditor
 2017-05-09 02:18:11,632 [P7696/D2/T12] INFO  Umbraco.Core.PluginManager - Completed resolution of types of Umbraco.Core.PropertyEditors.IParameterEditor, found 0 (took 7ms)
 2017-05-09 02:19:22,288 [P7696/D2/T12] INFO  umbraco.BusinessLogic.Log - Log scrubbed.  Removed all items older than 2017-05-08 02:19:22
 2017-05-09 02:19:23,109 [P7696/D2/T13] INFO  Umbraco.Core.PluginManager - Starting resolution types of Umbraco.Core.Persistence.Mappers.BaseMapper
 2017-05-09 02:19:23,113 [P7696/D2/T13] INFO  Umbraco.Core.PluginManager - Completed resolution of types of Umbraco.Core.Persistence.Mappers.BaseMapper, found 0 (took 4ms)
 2017-05-09 11:43:49,924 [P7696/D2/T134] INFO  umbraco.BusinessLogic.Log - Log scrubbed.  Removed all items older than 2017-05-08 11:43:49
 2017-05-09 15:43:49,934 [P7696/D2/T141] INFO  umbraco.BusinessLogic.Log - Log scrubbed.  Removed all items older than 2017-05-08 15:43:49
